"일련번호","강좌요일","강좌시간","강좌장소","강좌구분","강좌언어","강좌명","강좌비용","길정보","내용","위도","경도","사용여부"
"52","목","오후","사랑방","L003","KOR","손뜨개","월 5만원 (재료비 별도)","대중교통 이용시 지하철 3호선 안국역 2번출구 앞 [종로 02] 버스 승차 북촌한옥마을/돈미약국에서 하차 도보 약 2분","<p>손뜨개&nbsp;</p><p>김금화</p><p>&nbsp;</p><p>[주요 이력]</p><p>-&nbsp;현) 경희대학교 의류디자인학과 겸임교수</p><p>- 업사이클링 스토리 대표</p><p>- 한국니트디자인 학회 이사</p><p>-개인전 6회 단체전 30회 이상</p><p>&nbsp;</p><p>[강좌 목표]</p><p>- 니트 조직의 이론에서 실기 니트 디자인의 기초에서 응용 니트 실의 기초에서 응용에 이르기까지 단기간에 습득 가능한 예비 니트 전문가 코스입니다.</p><p>&nbsp;</p><p>[강좌 과정]</p><p>- 니트에 대한 기본이론에서 실기까지 통합된 과정이다.&nbsp;</p><p>상세 내용으로는 니트 디자인의 기초와 응용 털실활용에 있어서의 기초에서 응용에 대해 자세히 배우는 과정이다.</p><p>제작 아이템으로는 스카프와 모자를 중심으로 제작하면서 니트 기술을 습득할 예정이다.</p><p>&nbsp;</p><p>[준비 물품]</p><p>- 실 바늘(대바늘 코바늘)</p><p>- 재료비 3만원</p><p>&nbsp;</p>","37.579029","126.986408","Y"
"78","토","오전","대청마루","L003","KOR","매듭공예","월 5만원 (재료비 별도)","대중교통 이용시 지하철 3호선 안국역 2번출구 앞 [종로 02] 버스 승차 북촌한옥마을/돈미약국에서 하차 도보 약 2분","<p>매듭공예 Korean Tradition Knots<br>윤선미 Sunmi Yoon</p><p><br>[주요 이력]<br>&nbsp;- 2009 노동부 매듭기능 계승자</p><p><br>[강좌 목표]<br>&nbsp;- 전통매듭기법을 이용해 우리 생활 속의 소품을 만들어본다.</p><p><br>[강좌 내용/교육 과정]<br>&nbsp;- 3개월 과정 / 개별 수업<br>&nbsp;- 1개월차 : 도래 연봉 가락지매듭을 익혀 팔찌나 목걸이 만들기<br>&nbsp;- 2개월차 : 국화매듭 생쪽매듭과 브로치 만들기<br>&nbsp;- 3개월차 : 병아리매듭 매화매듭을 익혀 가방장식 만들기<br>&nbsp;- 이후 강사 개별지도</p><p><br>[준비물]<br>&nbsp;- 준비물 : 첫 수업시 강사가 직접 준비(동대문종합상가 방산시장)</p><p>&nbsp;- 수강료 : 월 50000원<br>&nbsp;- 재료비 : 월 30000원</p>","37.579029","126.986408","Y"
"28","화","야간","대청마루","L004","KOR","꽃차","월 5만원 (재료비 별도)","대중교통 이용시 지하철 3호선 안국역 2번출구 앞 [종로 02] 버스 승차 북촌한옥마을/돈미약국에서 하차 도보 약 2분","<p>꽃차 만들기</p><p>&nbsp;</p><p>이상분</p><p>&nbsp;</p><p>[주요 이력]</p><p>- 현) 부니네 다정 대표</p><p>- 전) 서초여성 가족프라자 강사</p><p>- 전) 서대문 예술마을 만들기 사업 꽃차강의</p><p>&nbsp;</p><p>[강좌 목표]</p><p>- 봄 여름 가을 겨울 각 계절별 소재를 활용하여 꽃차를 만든다.</p><p>&nbsp;</p><p>[강좌 과정]</p><p>- 사계절 별 그 계절에 생산되는 꽃 가지 열매 뿌리 등을 소재로 1년 단위로 수업 진행</p><p>- 꽃차에 대한 기초에서 응용 및 전문적 지식 습득이 가능한 과정</p><p>- 수강 신청은 매월 수시 모집 가능</p><p>&nbsp;</p><p>[준비 물품]</p><p>- 재료비 1회 10000원</p>","37.579029","126.986408","Y"
"46","목","오전","안방","L003","KOR","닥종이 인형","월 5만원 (재료비 별도)","대중교통 이용시 지하철 3호선 안국역 2번출구 앞 [종로 02] 버스 승차 북촌한옥마을/돈미약국에서 하차 도보 약 2분","<div>닥종이인형</div><div>이미원 LEE Mi Won</div><div><br></div><div>[주요 이력]</div><div>&nbsp;- 현) 한국닥종이인형예술협회 전시 이사</div><div>&nbsp;- 현) 강남문화원 닥종이인형 부강사</div><div>&nbsp;- 덕성여자대학 응용미술학과 졸업</div><div><br></div><div>[강좌 목표]</div><div>&nbsp;- 초보자도 쉽게 만들 수 있도록 기초부터 시작하여 인형 완성 후 큰 성취감을 느낄 수 있다.</div><div>&nbsp;- 우리 전통 한지를 재료로 하여 재미있고 다양한 형태의 인형을 만드는 작업</div><div><br></div><div>[강좌 내용/교육 과정]</div><div>&nbsp;- 3개월 단위 초중고급 과정(1-2년) / 그룹 수업</div><div>&nbsp;- 1개월차 : 인형의 구상 인형 틀/얼굴 만들기</div><div>&nbsp;- 2개월차 : 인형 몸통과 팔 다리 만들기</div><div>&nbsp;- 3개월차 : 피부/머리카락 붙이기 옷 입히기 신발/소품 만들기</div><div>&nbsp;- 수시접수로 개별지도 가능</div><div><br></div><div>[준비물]</div><div>&nbsp;- 준비물 :&nbsp; 처음 수업 참여 시 3개월 간 사용할 수 있는 재료를 강사가 사전 준비</div><div>&nbsp;- 수강료 : 월 50000원</div><div>&nbsp;- 재료비 : 30000원 (처음 첫 달만 냄 3개월 이후 각자 준비)</div>","37.579029","126.986408","Y"
"24","화","오후","별당","L003","KOR","한복인형퀼트","월 5만원 (재료비 별도)","대중교통 이용시 지하철 3호선 안국역 2번출구 앞 [종로 02] 버스 승차 북촌한옥마을/돈미약국에서 하차 도보 약 2분","<p>한복인형퀼트<br>이기은 Lee GIeun</p><p><br>[주요 이력]<br>&nbsp;- 청강 패션메이커스 장려상 (업사이클 인형작품) 수상<br>&nbsp;- 여성공예마켓 '수공길' 참여<br>&nbsp;- 인사동 경인미술관 전시 '플리마켓 수' 수공예 회원전 참여<br>&nbsp;- 핸디아트 코리아페어 / 공예트랜드페어 / 서울국제 핸드메이드페어 / 일산 고양아트마켓 작가전 참여<br>&nbsp;- 제12회 서울인쇄대상 공모 조직위원장상 - 힐링북<br>&nbsp;- 자가힐링북 인형컬러링이 담겨있는 [힐링북] 출판<br>&nbsp;- '인형의 꿈' 서초복지관 인형기증 및 인형전시 기획 및 참여</p><p><br>[강좌 목표]<br>&nbsp;- 기존 퀼트 패브릭 인형과 한복의 고운 빛을 함께 담아 재구성한 아이템을<br>&nbsp;&nbsp;&nbsp; 한땀 한땀 힐링 바느질로 함께 나누고자 합니다.</p><p><br>[강좌 내용/교육 과정]<br>&nbsp;- 1단계(입문) : 인형 꽃자수 카드캡 동전지갑<br>&nbsp;- 2단계 : 인형 가죽끈가방 모빌 자수러그 액자 / 커플인형<br>&nbsp;- 3단계 : 인형 마고자 티코지 반지고리<br>&nbsp;- 4단계 : 인형 인형자수매트<br>&nbsp;- 5단계 : 부부인형 창작인형</p><p><br>[준비물]<br>&nbsp;- 준비물 : 인형 바느질 도구(구입가능)<br>&nbsp;- 재료비 : 처음만 8만원</p>","37.579029","126.986408","Y"
"34","수","오전","별당","L003","KOR","한복인형퀼트","월 5만원 (재료비 별도)","대중교통 이용시 지하철 3호선 안국역 2번출구 앞 [종로 02] 버스 승차 북촌한옥마을/돈미약국에서 하차 도보 약 2분","<p>한복인형퀼트<br>이기은 Lee GIeun</p><p><br>[주요 이력]<br>&nbsp;- 청강 패션메이커스 장려상 (업사이클 인형작품) 수상<br>&nbsp;- 여성공예마켓 '수공길' 참여<br>&nbsp;- 인사동 경인미술관 전시 '플리마켓 수' 수공예 회원전 참여<br>&nbsp;- 핸디아트 코리아페어 / 공예트랜드페어 / 서울국제 핸드메이드페어 / 일산 고양아트마켓 작가전 참여<br>&nbsp;- 제12회 서울인쇄대상 공모 조직위원장상 - 힐링북<br>&nbsp;- 자가힐링북 인형컬러링이 담겨있는 [힐링북] 출판<br>&nbsp;- '인형의 꿈' 서초복지관 인형기증 및 인형전시 기획 및 참여</p><p><br>[강좌 목표]<br>&nbsp;- 기존 퀼트 패브릭 인형과 한복의 고운 빛을 함께 담아 재구성한 아이템을<br>&nbsp;&nbsp;&nbsp; 한땀 한땀 힐링 바느질로 함께 나누고자 합니다.</p><p><br>[강좌 내용/교육 과정]<br>&nbsp;- 1단계(입문) : 인형 꽃자수 카드캡 동전지갑<br>&nbsp;- 2단계 : 인형 가죽끈가방 모빌 자수러그 액자 / 커플인형<br>&nbsp;- 3단계 : 인형 마고자 티코지 반지고리<br>&nbsp;- 4단계 : 인형 인형자수매트<br>&nbsp;- 5단계 : 부부인형 창작인형</p><p><br>[준비물]<br>&nbsp;- 준비물 : 인형 바느질 도구(구입가능)<br>&nbsp;- 재료비 : 처음만 8만원</p>","37.579029","126.986408","Y"
"76","토","오전","안방","L001","KOR","가야금","월 5만원 (재료비 별도)","대중교통 이용시 지하철 3호선 안국역 2번출구 앞 [종로 02] 버스 승차 북촌한옥마을/돈미약국에서 하차 도보 약 2분","<p>가야금 Gayageum<br>황이레 HWANG Ire</p><p><br>[주요 이력]<br>&nbsp;- 국립국악중학교 / 국립국악고등학교 졸업<br>&nbsp;- 서울대학교 음악대학 졸업<br>&nbsp;- 현) 서울대학교 음악대학원 석사과정<br>&nbsp;- 가야금앙상블 사계 멤버<br>&nbsp;- 서울가야금앙상블 멤버</p><p><br>[강좌 목표]<br>&nbsp;- 우리 전통악기인 가야금과 친해지고 스스로 연주 가능하도록 합니다.</p><p><br>[강좌 내용/교육 과정]<br>&nbsp;- 개별마다 진도가 다르기 때문에 1:1 개인지도로 진행됩니다.<br>&nbsp;- 기초부터 입시 및 전문 과정까지 가능하며<br>&nbsp;&nbsp; 강사와 상의 후에 자유롭게 원하시는 방향으로 배우실 수 있습니다.</p><p><br>[준비물]<br>&nbsp;- 준비물 : 산조가야금12현 악보(강사와 상의 후 결정)</p>","37.579031","126.986405","Y"
"80","토","오전","마을서재 사랑방","L001","KOR","소리와 함께하는 장구","월 5만원 (재료비 별도)","대중교통 이용시 지하철 3호선 안국역 2번출구 앞 [종로 02] 버스 승차 북촌한옥마을/돈미약국에서 하차 도보 약 2분","<p>장구&nbsp;</p><p>신형식</p><p>&nbsp;</p><p>[주요 이력]</p><p>- 한국예술종합학교 전통예술원 졸업</p><p>- 구미 박록주 제 10회 전국국악대전 종합대상(대통령상) 수상</p><p>- 현) 종합예술가모임 파르베 대표</p><p>&nbsp;</p><p>[강좌 목표]</p><p>- 장구의 기본 장단을 익히고 장단에 맞추어 누구나 쉽게 부를 수 있는 전통성악곡을 배우고 익힙니다.&nbsp;</p>","37.579029","126.986408","Y"
"60","목","야간","마을서재 사랑방","L001","KOR","가야금(25현)","월 5만원 (재료비 별도)","대중교통 이용시 지하철 3호선 안국역 2번출구 앞 [종로 02] 버스 승차 북촌한옥마을/돈미약국에서 하차 도보 약 2분","<p>가야금&nbsp;</p><p>송정아</p><p>&nbsp;</p><p>[주요&nbsp;이력]</p><p>- 한국예술종합학교 예술사 및 예술전문사 졸업</p><p>- 앙상블 이채로와 / 가야금 is&nbsp;이채로와 대표</p><p>- 제 35회 올해의 주목할 예술가 전통부문 선정(한국예술평론가협의회)</p><p>&nbsp;</p><p>[강좌 목표]</p><p>- 12현 또는 25현 가야금을 체득하여 전통음악뿐만 아니라 가요 팝송 OST 등 다양한 장르의 음악을 이채롭게&nbsp;배울 수 있습니다.&nbsp;</p>","37.579029","126.986408","Y"
"58","목","야간","대청마루","L001","KOR","소리와 함께하는 장구","월 5만원 (재료비 별도)","대중교통 이용시 지하철 3호선 안국역 2번출구 앞 [종로 02] 버스 승차 북촌한옥마을/돈미약국에서 하차 도보 약 2분","<p>장구&nbsp;</p><p>신형식</p><p>&nbsp;</p><p>[주요 이력]</p><p>- 한국예술종합학교 전통예술원 졸업</p><p>- 구미 박록주 제 10회 전국국악대전 종합대상(대통령상) 수상</p><p>- 현) 종합예술가모임 파르베 대표</p><p>&nbsp;</p><p>[강좌 목표]</p><p>- 장구의 기본 장단을 익히고 장단에 맞추어 누구나 쉽게 부를 수 있는 전통성악곡을 배우고 익힙니다.&nbsp;</p>","37.579029","126.986408","Y"
"19","화","오전","별당","L003","KOR","한복인형퀼트","월 5만원 (재료비 별도)","대중교통 이용시 지하철 3호선 안국역 2번출구 앞 [종로 02] 버스 승차 북촌한옥마을/돈미약국에서 하차 도보 약 2분","<p>한복인형퀼트<br>이기은 Lee GIeun</p><p><br>[주요 이력]<br>&nbsp;- 청강 패션메이커스 장려상 (업사이클 인형작품) 수상<br>&nbsp;- 여성공예마켓 '수공길' 참여<br>&nbsp;- 인사동 경인미술관 전시 '플리마켓 수' 수공예 회원전 참여<br>&nbsp;- 핸디아트 코리아페어 / 공예트랜드페어 / 서울국제 핸드메이드페어 / 일산 고양아트마켓 작가전 참여<br>&nbsp;- 제12회 서울인쇄대상 공모 조직위원장상 - 힐링북<br>&nbsp;- 자가힐링북 인형컬러링이 담겨있는 [힐링북] 출판<br>&nbsp;- '인형의 꿈' 서초복지관 인형기증 및 인형전시 기획 및 참여</p><p><br>[강좌 목표]<br>&nbsp;- 기존 퀼트 패브릭 인형과 한복의 고운 빛을 함께 담아 재구성한 아이템을<br>&nbsp;&nbsp;&nbsp; 한땀 한땀 힐링 바느질로 함께 나누고자 합니다.</p><p><br>[강좌 내용/교육 과정]<br>&nbsp;- 1단계(입문) : 인형 꽃자수 카드캡 동전지갑<br>&nbsp;- 2단계 : 인형 가죽끈가방 모빌 자수러그 액자 / 커플인형<br>&nbsp;- 3단계 : 인형 마고자 티코지 반지고리<br>&nbsp;- 4단계 : 인형 인형자수매트<br>&nbsp;- 5단계 : 부부인형 창작인형</p><p><br>[준비물]<br>&nbsp;- 준비물 : 인형 바느질 도구(구입가능)<br>&nbsp;- 재료비 : 처음만 8만원</p>","37.579029","126.986408","Y"
"38","수","오후","대청마루","L003","KOR","목조각","월 5만원 (재료비 별도)","대중교통 이용시 지하철 3호선 안국역 2번출구 앞 [종로 02] 버스 승차 북촌한옥마을/돈미약국에서 하차 도보 약 2분","<p>목조각&nbsp;</p><p>라병연</p><p>&nbsp;</p><p>[주요 이력]</p><p>- 2019 숙련기술전수자(한국산업인력공단) 선정</p><p>- 2017 경기도무형문화재 제 49호 목조각장 이수자(경기도청)</p><p>- 2010 문화재수리기능자 목조각공 제 5768호(문화재청)</p><p>&nbsp;</p><p>[강좌 목표]</p><p>- 나무를 새롭게 느끼고 이해하는 시간으로 목조각 예술의 예술심리치료적인 새로운 가능성을 경험하며 '나무와 대화하면서 나와 대화하기'를 하는 힐링의 시간이 될 수 있는 강의입니다.&nbsp;</p>","37.579029","126.986408","Y"
"32","수","오전","사랑방","L003","KOR","풀짚공예","월 5만원 (재료비 별도)","대중교통 이용시 지하철 3호선 안국역 2번출구 앞 [종로 02] 버스 승차 북촌한옥마을/돈미약국에서 하차 도보 약 2분","<p>풀짚공예<br>박진희 PARK Jinhee</p><p><br>[주요이력]</p><p><br>[강좌목표]</p><p><br>[강좌 내용/교육 과정]<br>&nbsp;* 9개월 과정<br>- 초급반(3개월) : 기본 이론과 재료 및 기법 위주 / 새끼꼬기 부리망 복조리 등 10여 작품<br>- 중급반(3개월) : 기본 기법을 활용 / 또아리 여치집 시루밑 등 10여 작품<br>- 고급반(3개월) : 재료의 채취 및 활용 방법 다양한 기법 / 주루목 방석 짚신 등 창작 5여 작품</p><p><br>[준비물]<br>- 준비물 : 가위 스프레이 비닐 가방<br>- 수강료 : 월 50000원<br>- 재료비 : 60000원 (초급 3개월 기준)&nbsp; * 단계별 단가 변동 차등</p>","37.579029","126.986408","Y"
"35","수","오전","마을서재 사랑방","L004","KOR","꽃차","월 5만원 (재료비 별도)","대중교통 이용시 지하철 3호선 안국역 2번출구 앞 [종로 02] 버스 승차 북촌한옥마을/돈미약국에서 하차 도보 약 2분","<p>꽃차 만들기</p><p>&nbsp;</p><p>이상분</p><p>&nbsp;</p><p>[주요 이력]</p><p>- 현) 부니네 다정 대표</p><p>- 전) 서초여성 가족프라자 강사</p><p>- 전) 서대문 예술마을 만들기 사업 꽃차강의</p><p>&nbsp;</p><p>[강좌 목표]</p><p>- 봄 여름 가을 겨울 각 계절별 소재를 활용하여 꽃차를 만든다.</p><p>&nbsp;</p><p>[강좌 과정]</p><p>- 사계절 별 그 계절에 생산되는 꽃 가지 열매 뿌리 등을 소재로 1년 단위로 수업 진행</p><p>- 꽃차에 대한 기초에서 응용 및 전문적 지식 습득이 가능한 과정</p><p>- 수강 신청은 매월 수시 모집 가능</p><p>&nbsp;</p><p>[준비 물품]</p><p>- 재료비 1회 10000원</p>","37.579029","126.986408","Y"
"6","월","오후","안방","L001","KOR","캘리그라피","월 5만원 (재료비 별도)","대중교통 이용시 지하철 3호선 안국역 2번출구 앞 [종로 02] 버스 승차 북촌한옥마을/돈미약국에서 하차 도보 약 2분","<p>캘리그라피 Calligraphy<br>김수진 Kim Sujin</p><p><br>[주요이력]<br>&nbsp;- 홍익대학교 일반대학원 의상학과<br>&nbsp;- 현) 남양주 다산2동 캘리그라피 강사<br>&nbsp;- 현) 디자인 스튜디오 '꽃담터' 대표<br>&nbsp;- 전) 금강제화 계열 ㈜스프리스 디자이너<br>&nbsp;- 전) 대성그룹 계열 ㈜글로리아트레이딩 디자이너</p><p><br>[강좌 목표]<br>&nbsp;- 일상에서 글꼴을 통한 이야기와 예술을 표현</p><p><br>[강좌 내용/교육 과정]<br>&nbsp;- 입문반(3개월) : 캘리그라피 기본 운용 과정<br>&nbsp;- 중급반(3개월) : 다양한 글꼴 및 구성 방법<br>&nbsp;- 고급반(3개월) : 붓펜 수채 캘리그라피 등 디자인 과정<br>&nbsp;- 작품반 : 직접 작업한 작품을 이용한 달력 및 책 제작</p><p><br>[준비물]<br>&nbsp;- 준비물 : 화선지 먹물 붓 멍석 등 (인사동 필방 / 첫 수업시 강사가 준비)<br>&nbsp;- 재료비 : 3만원</p>","37.579029","126.986408","Y"
"40","수","오후","마을서재 사랑방","L003","KOR","목조각 힐링교실","월 5만원 (재료비 별도)","대중교통 이용시 지하철 3호선 안국역 2번출구 앞 [종로 02] 버스 승차 북촌한옥마을/돈미약국에서 하차 도보 약 2분","<div>목조각</div><div>라병연</div><div><br></div><div>[주요 이력]</div><div>-2011 명지대 사회교육대학원 예술치료학과 예술치료학 석사</div><div>-1998 서울과학기술대학교 조형대학 공업디자인학과 미술학사</div><div>-2019 숙련기술전수자 장승제작 선정(한국산업인력공단)</div><div>-2017 경기도무형문화재 제 49호 목조각장 이수자(경기도청)</div><div>-2014 우수숙련기술자 목칠공예/목조각(한국사업인력공단)</div><div>-2010 문화재수리기능자 목조각공 제5768호(문화재청)</div><div><br></div><div>[강좌 목표]</div><div>-나무의 질을 이해하고 조각도 사용법을 익혀서 목조각 예술의 즐거움을 느낄 수 있도록 지도합니다. 조각도 갈기 부조 입체 서각 등 기초 목조각 강의입니다.</div>","37.579029","126.986408","Y"
"51","목","오후","안방","L001","KOR","어린이 서예","월 4만원 (재료비 별도)","대중교통 이용시 지하철 3호선 안국역 2번출구 앞 [종로 02] 버스 승차 북촌한옥마을/돈미약국에서 하차 도보 약 2분","<p>서예<br>이정선</p><p><br>[주요이력]<br>- 1987년 제 8회 전국서예대전 동상<br>- 1989년 제 3회 동남아미술대전 입선<br>- 1990년 동양서도작가협회 특선<br>- 1991년 동양서도작가협회 우수상<br>- 1991~93년 제 13~16회 한국미술문화대상전 입선 특선<br>- 2009년 제 41회 신사임당 날 기념 예능대회 입선<br>- 1992-1998 서예학원 운영<br>- 2010-2014 대림대학교 강사<br>- 2013-2018 서울시 평생학습 대림정보문화도서관 삼성노블카운티<br>&nbsp; 불광NC문화센터 강사 김포향교 명륜대학 강사<br>- 2019 김포향교 명륜대학 강사 북촌문화센터 강사</p><p><br>[강좌목표]<br>- 옛 선조들의 전통문화를 체험해 보고자 합니다. 북촌이라는 공간 속에서 라면<br>&nbsp; 바쁜 삶속에 지친 현대인의 감성을 치유하여 몸과 마음에 힐링이 되리라 생각합니다.</p><p><br>[강좌 내용/교육 과정]<br>- 회원분들과 손글씨의 즐거움을 경험해 보고자 합니다.<br>- 수업진행은 임서 위주로 진행합니다. 궁체 정자 흘림 판본체 옥원듕회연 낙성비룡 구운몽<br>&nbsp; 서간문 음식디미방체 등등 다양한 글씨체를 익히도록 연습합니다.<br>- 평소 본인이 좋아하는 글귀나 시로 자신의 작품을 만들고 그 작품을 선물 할 수 있었으면 합니다.<br>&nbsp; 학기를 마치며 차회를 열고 작품전시를 통해 지인들을 초대하여<br>&nbsp; 북촌에서의 특별한 시간을 함께 즐길 수 있었으면 합니다.</p><p><br>[준비물]<br>- 화선지 붓 먹물</p>","37.579029","126.986408","Y"
"54","목","오후","별당","L001","KOR","어린이 서예","월 4만원 (재료비 별도)","대중교통 이용시 지하철 3호선 안국역 2번출구 앞 [종로 02] 버스 승차 북촌한옥마을/돈미약국에서 하차 도보 약 2분","<p>서예<br>이정선</p><p><br>[주요이력]<br>- 1987년 제 8회 전국서예대전 동상<br>- 1989년 제 3회 동남아미술대전 입선<br>- 1990년 동양서도작가협회 특선<br>- 1991년 동양서도작가협회 우수상<br>- 1991~93년 제 13~16회 한국미술문화대상전 입선 특선<br>- 2009년 제 41회 신사임당 날 기념 예능대회 입선<br>- 1992-1998 서예학원 운영<br>- 2010-2014 대림대학교 강사<br>- 2013-2018 서울시 평생학습 대림정보문화도서관 삼성노블카운티<br>&nbsp; 불광NC문화센터 강사 김포향교 명륜대학 강사<br>- 2019 김포향교 명륜대학 강사 북촌문화센터 강사</p><p><br>[강좌목표]<br>- 옛 선조들의 전통문화를 체험해 보고자 합니다. 북촌이라는 공간 속에서 라면<br>&nbsp; 바쁜 삶속에 지친 현대인의 감성을 치유하여 몸과 마음에 힐링이 되리라 생각합니다.</p><p><br>[강좌 내용/교육 과정]<br>- 회원분들과 손글씨의 즐거움을 경험해 보고자 합니다.<br>- 수업진행은 임서 위주로 진행합니다. 궁체 정자 흘림 판본체 옥원듕회연 낙성비룡 구운몽<br>&nbsp; 서간문 음식디미방체 등등 다양한 글씨체를 익히도록 연습합니다.<br>- 평소 본인이 좋아하는 글귀나 시로 자신의 작품을 만들고 그 작품을 선물 할 수 있었으면 합니다.<br>&nbsp; 학기를 마치며 차회를 열고 작품전시를 통해 지인들을 초대하여<br>&nbsp; 북촌에서의 특별한 시간을 함께 즐길 수 있었으면 합니다.</p><p><br>[준비물]<br>- 화선지 붓 먹물</p>","37.579029","126.986408","Y"
"2","월","오전","사랑방","L001","KOR","캘리그라피","월 5만원 (재료비 별도)","대중교통 이용시 지하철 3호선 안국역 2번출구 앞 [종로 02] 버스 승차 북촌한옥마을/돈미약국에서 하차 도보 약 2분","<p>캘리그라피 Calligraphy<br>김수진 Kim Sujin</p><p><br>[주요이력]<br>&nbsp;- 홍익대학교 일반대학원 의상학과<br>&nbsp;- 현) 남양주 다산2동 캘리그라피 강사<br>&nbsp;- 현) 디자인 스튜디오 '꽃담터' 대표<br>&nbsp;- 전) 금강제화 계열 ㈜스프리스 디자이너<br>&nbsp;- 전) 대성그룹 계열 ㈜글로리아트레이딩 디자이너</p><p><br>[강좌 목표]<br>&nbsp;- 일상에서 글꼴을 통한 이야기와 예술을 표현</p><p><br>[강좌 내용/교육 과정]<br>&nbsp;- 입문반(3개월) : 캘리그라피 기본 운용 과정<br>&nbsp;- 중급반(3개월) : 다양한 글꼴 및 구성 방법<br>&nbsp;- 고급반(3개월) : 붓펜 수채 캘리그라피 등 디자인 과정<br>&nbsp;- 작품반 : 직접 작업한 작품을 이용한 달력 및 책 제작</p><p><br>[준비물]<br>&nbsp;- 준비물 : 화선지 먹물 붓 멍석 등 (인사동 필방 / 첫 수업시 강사가 준비)<br>&nbsp;- 재료비 : 3만원</p>","37.579029","126.986408","Y"
"56","목","야간","안방","L001","KOR","실용민화","월 5만원 (재료비 별도)","대중교통 이용시 지하철 3호선 안국역 2번출구 앞 [종로 02] 버스 승차 북촌한옥마을/돈미약국에서 하차 도보 약 2분","<p>실용민화<br>진리바</p><p><br>[주요이력]<br>&nbsp;- 경기대학교 동대학원 한국화과 졸업<br>&nbsp;- 성균관대학교 일반대학원 유학과 박사 졸업(동양미학 전공)<br>&nbsp;- 개인전 4회 및 초대전 6회 (인사아트센터 덕원갤러리 라메르갤러리 가고시포갤러리 한가람미술과<br>&nbsp;&nbsp; 수아아트스페이스 안양롯데화랑 허브갤러리 NC갤러리)<br>&nbsp;- 그 외 단체전 다수(회원전 포함)<br>&nbsp;- 경기대학교 단국대학교 한국화과 강사 역임</p><p><br>[강좌 목표]<br>&nbsp;- 민화는 우리 전통회화의 한 부분으로 일반인이 전통화를 시작할 때 초급에서부터 전문가 과정으로까지<br>&nbsp;&nbsp; 쉽게 연계가 가능한 분야이다. 추후 비단에 그리는 과정과 전통인물화 공필화까지 심화수업을 통해<br>&nbsp;&nbsp; 전문화 할 수 있다. 또한 실생활에 이용할 수 있는 생활용품들에 민화를 그려 넣어<br>&nbsp;&nbsp; 인테리어 소품으로도 활용 가능한 작품들을 만들 수 있으며<br>&nbsp;&nbsp; 그 외 수업 내 완성한 작품들과 함께 전시를 통해 많은 사람들과 공유하고자 한다.</p><p><br>[강좌 내용/교육 과정]<br>&nbsp;◎ 과정설명 및 재료소개<br>&nbsp;- 밑그림 그리기 &gt; 한지 물들이기&gt; 바탕색 칠하기 &gt; 바림하기&gt; 마감선 긋기<br>&nbsp; ◎ 작업순서<br>&nbsp;- 모란도 연화도 호접도 초충도 작호도 등을 순서로 하며 그 외 자유선택</p><p><br>[준비물]<br>&nbsp;- 먹물 한지(민화용) 아교 선붓 바림붓 채색붓(2개 이상) 호분<br>&nbsp;&nbsp;&nbsp; 민화용물감(튜브 또는 분채 선택) 평붓 소접시<br>&nbsp;- 대략 13~15만원 정도로 첫 준비물 이후론 추가 종이만 구매하면 된다.</p>","37.579029","126.986408","Y"
"21","화","오후","안방","L003","KOR","규방공예","월 5만원 (재료비 별도)","대중교통 이용시 지하철 3호선 안국역 2번출구 앞 [종로 02] 버스 승차 북촌한옥마을/돈미약국에서 하차 도보 약 2분","<p>규방공예<br>김성미</p><p><br>[강사이력]<br>&nbsp;- 일본 동경 카라무시 공방 규방공예 수강<br>&nbsp;- 국립 중앙 박물관 보자기 강좌 수강<br>&nbsp;- 북촌문화센터 규방공예 수강<br>&nbsp;- 작은쉼터갤러리 (사)문화다움의 문화 행사 기획사업<br>&nbsp;&nbsp; 규방 공예전 “감투할미와 세요각시 나들이” 전시 2016 2017 2018<br>&nbsp;- 현) 한순자 로사 공방 회원<br>&nbsp;- 홍익대학교 미술대학 졸업</p><p><br>[강좌목표]<br>&nbsp;- 규방 공예는 옛 여인들의 미적 아름다움과 삶의 철학이 담긴 전통 바느질을 현대로 이어 가는 바느질입니다.<br>&nbsp;&nbsp; 세시 절기에 맞는 규방 공예품을 제작합니다. 전통 바느질을 익히고 이것을 응용하여<br>&nbsp;&nbsp; 실생활에 필요한 소품을 만들어 생활 속에서의&nbsp; 작은 즐거움을 전달하고자 합니다.</p><p><br>[강좌내용]<br>&nbsp;- 기초 바느질 법 배우기 (감침질 온박음질 반박음질 쌈솔 기법 등)<br>&nbsp;- 비단을 이용한 보자기 만들기 (바둑판 조각보 옥사 홑보 무지개보 등)<br>&nbsp;- 모시를 이용한 보자기 만들기 (다과보 모시 홑보 등)<br>&nbsp;- 규방 공예 소품 제작 (골무 바늘겨례 노리개 주머니 누비지갑 등)</p><p><br>[교육 과정]<br>&nbsp;- 초급 중급 연구 과정이 있으며 각 계절에 어울리는 원단과 바느질 기법연구</p><p><br>[준비물품]<br>&nbsp;- 기초 재료는 강좌 시작 전에 제공합니다.<br>&nbsp;- 개인준비물 : 중간 사이즈 가위 30cm 자<br>&nbsp;- 재료비 : 4회 기준 8만원 (중급/연구 과정의 경우 작품당 기준으로 재료비가 정해집니다)</p>","37.579031","126.986405","Y"
"1","월","오전","안방","L001","KOR","실용민화","월 5만원 (재료비 별도)","대중교통 이용시 지하철 3호선 안국역 2번출구 앞 [종로 02] 버스 승차 북촌한옥마을/돈미약국에서 하차 도보 약 2분","<p>실용민화<br>진리바</p><p><br>[주요이력]<br>&nbsp;- 경기대학교 동대학원 한국화과 졸업<br>&nbsp;- 성균관대학교 일반대학원 유학과 박사 졸업(동양미학 전공)<br>&nbsp;- 개인전 4회 및 초대전 6회 (인사아트센터 덕원갤러리 라메르갤러리 가고시포갤러리 한가람미술과<br>&nbsp;&nbsp; 수아아트스페이스 안양롯데화랑 허브갤러리 NC갤러리)<br>&nbsp;- 그 외 단체전 다수(회원전 포함)<br>&nbsp;- 경기대학교 단국대학교 한국화과 강사 역임</p><p><br>[강좌 목표]<br>&nbsp;- 민화는 우리 전통회화의 한 부분으로 일반인이 전통화를 시작할 때 초급에서부터 전문가 과정으로까지<br>&nbsp;&nbsp; 쉽게 연계가 가능한 분야이다. 추후 비단에 그리는 과정과 전통인물화 공필화까지 심화수업을 통해<br>&nbsp;&nbsp; 전문화 할 수 있다. 또한 실생활에 이용할 수 있는 생활용품들에 민화를 그려 넣어<br>&nbsp;&nbsp; 인테리어 소품으로도 활용 가능한 작품들을 만들 수 있으며<br>&nbsp;&nbsp; 그 외 수업 내 완성한 작품들과 함께 전시를 통해 많은 사람들과 공유하고자 한다.</p><p><br>[강좌 내용/교육 과정]<br>&nbsp;◎ 과정설명 및 재료소개<br>&nbsp;- 밑그림 그리기 &gt; 한지 물들이기&gt; 바탕색 칠하기 &gt; 바림하기&gt; 마감선 긋기<br>&nbsp; ◎ 작업순서<br>&nbsp;- 모란도 연화도 호접도 초충도 작호도 등을 순서로 하며 그 외 자유선택</p><p><br>[준비물]<br>&nbsp;- 먹물 한지(민화용) 아교 선붓 바림붓 채색붓(2개 이상) 호분<br>&nbsp;&nbsp;&nbsp; 민화용물감(튜브 또는 분채 선택) 평붓 소접시<br>&nbsp;- 대략 13~15만원 정도로 첫 준비물 이후론 추가 종이만 구매하면 된다.</p>","37.579029","126.986408","Y"
"39","수","오후","별당","L003","KOR","한복인형퀼트","월 5만원 (재료비 별도)","대중교통 이용시 지하철 3호선 안국역 2번출구 앞 [종로 02] 버스 승차 북촌한옥마을/돈미약국에서 하차 도보 약 2분","<p>한복인형퀼트<br>이기은 Lee GIeun</p><p><br>[주요 이력]<br>&nbsp;- 청강 패션메이커스 장려상 (업사이클 인형작품) 수상<br>&nbsp;- 여성공예마켓 '수공길' 참여<br>&nbsp;- 인사동 경인미술관 전시 '플리마켓 수' 수공예 회원전 참여<br>&nbsp;- 핸디아트 코리아페어 / 공예트랜드페어 / 서울국제 핸드메이드페어 / 일산 고양아트마켓 작가전 참여<br>&nbsp;- 제12회 서울인쇄대상 공모 조직위원장상 - 힐링북<br>&nbsp;- 자가힐링북 인형컬러링이 담겨있는 [힐링북] 출판<br>&nbsp;- '인형의 꿈' 서초복지관 인형기증 및 인형전시 기획 및 참여</p><p><br>[강좌 목표]<br>&nbsp;- 기존 퀼트 패브릭 인형과 한복의 고운 빛을 함께 담아 재구성한 아이템을<br>&nbsp;&nbsp;&nbsp; 한땀 한땀 힐링 바느질로 함께 나누고자 합니다.</p><p><br>[강좌 내용/교육 과정]<br>&nbsp;- 1단계(입문) : 인형 꽃자수 카드캡 동전지갑<br>&nbsp;- 2단계 : 인형 가죽끈가방 모빌 자수러그 액자 / 커플인형<br>&nbsp;- 3단계 : 인형 마고자 티코지 반지고리<br>&nbsp;- 4단계 : 인형 인형자수매트<br>&nbsp;- 5단계 : 부부인형 창작인형</p><p><br>[준비물]<br>&nbsp;- 준비물 : 인형 바느질 도구(구입가능)<br>&nbsp;- 재료비 : 처음만 8만원</p>","37.579029","126.986408","Y"
"30","화","야간","마을서재 사랑방","L001","KOR","가야금","월 5만원 (재료비 별도)","대중교통 이용시 지하철 3호선 안국역 2번출구 앞 [종로 02] 버스 승차 북촌한옥마을/돈미약국에서 하차 도보 약 2분","<div>가야금&nbsp;</div><div><br></div><div>송정아</div><div><br></div><div>[주요 이력]</div><div>- 한국예술종합학교 예술사 및 예술전문사 졸업</div><div>- 앙상블 이채로와 / 가야금 is 이채로와 대표</div><div>- 제 35회 올해의 주목할 예술가 전통부문 선정(한국예술평론가협의회)</div><div><br></div><div>[강좌 목표]</div><div>- 12현 또는 25현 가야금을 체득하여 전통음악뿐만 아니라 가요 팝송 OST 등 다양한 장르의 음악을 이채롭게 배울 수 있습니다.&nbsp;</div>","37.579029","126.986408","Y"
"17","화","오전","사랑방","L003","KOR","규방공예","월 5만원 (재료비 별도)","대중교통 이용시 지하철 3호선 안국역 2번출구 앞 [종로 02] 버스 승차 북촌한옥마을/돈미약국에서 하차 도보 약 2분","<p>규방공예<br>김성미</p><p><br>[강사이력]<br>&nbsp;- 일본 동경 카라무시 공방 규방공예 수강<br>&nbsp;- 국립 중앙 박물관 보자기 강좌 수강<br>&nbsp;- 북촌문화센터 규방공예 수강<br>&nbsp;- 작은쉼터갤러리 (사)문화다움의 문화 행사 기획사업<br>&nbsp;&nbsp; 규방 공예전 “감투할미와 세요각시 나들이” 전시 2016 2017 2018<br>&nbsp;- 현) 한순자 로사 공방 회원<br>&nbsp;- 홍익대학교 미술대학 졸업</p><p><br>[강좌목표]<br>&nbsp;- 규방 공예는 옛 여인들의 미적 아름다움과 삶의 철학이 담긴 전통 바느질을 현대로 이어 가는 바느질입니다.<br>&nbsp;&nbsp; 세시 절기에 맞는 규방 공예품을 제작합니다. 전통 바느질을 익히고 이것을 응용하여<br>&nbsp;&nbsp; 실생활에 필요한 소품을 만들어 생활 속에서의&nbsp; 작은 즐거움을 전달하고자 합니다.</p><p><br>[강좌내용]<br>&nbsp;- 기초 바느질 법 배우기 (감침질 온박음질 반박음질 쌈솔 기법 등)<br>&nbsp;- 비단을 이용한 보자기 만들기 (바둑판 조각보 옥사 홑보 무지개보 등)<br>&nbsp;- 모시를 이용한 보자기 만들기 (다과보 모시 홑보 등)<br>&nbsp;- 규방 공예 소품 제작 (골무 바늘겨례 노리개 주머니 누비지갑 등)</p><p><br>[교육 과정]<br>&nbsp;- 초급 중급 연구 과정이 있으며 각 계절에 어울리는 원단과 바느질 기법연구</p><p><br>[준비물품]<br>&nbsp;- 기초 재료는 강좌 시작 전에 제공합니다.<br>&nbsp;- 개인준비물 : 중간 사이즈 가위 30cm 자<br>&nbsp;- 재료비 : 4회 기준 8만원 (중급/연구 과정의 경우 작품당 기준으로 재료비가 정해집니다)</p>","37.579031","126.986405","Y"
"16","화","오전","안방","L002","KOR","문인화","월 5만원 (재료비 별도)","대중교통 이용시 지하철 3호선 안국역 2번출구 앞 [종로 02] 버스 승차 북촌한옥마을/돈미약국에서 하차 도보 약 2분","<p>문인화(사군자)<br>박미진 PARK Mijin</p><p><br>[주요 이력]<br>&nbsp;- 원광대학교 사범대학 미술교육과 졸업<br>&nbsp;- 여주 점동중학교 양평 강하중학교 의정부서중학교 양주 덕정중학교 교사 역임<br>&nbsp;- 심사위원 : 대한민국 미술대전 경기도 미술대전 대전광역시 미술대전 행주서예대전<br>&nbsp;- 초대작가 : 대한미국 미술대전 전라북도 미술대전 충청남도 미술대전<br>&nbsp;&nbsp;&nbsp;&nbsp;&nbsp;&nbsp;&nbsp;&nbsp;&nbsp;&nbsp;&nbsp;&nbsp;&nbsp;&nbsp;&nbsp;&nbsp;&nbsp; 대한민국 문인화대전 강함휘호대회 전국휘호대회(국서련)<br>&nbsp;- 한국미술협회 회원 마포미협 문인화 분과위원장 화묵회 회원<br>&nbsp;- 개인전(2015 가나인사아트센터)과 단체전 다수</p><p><br>[강좌 목표]<br>&nbsp;- 매난국죽의 사군자를 포함 서예적인 필법을 이용해서 누구나 그릴 수 있는 수묵 담채화를 그린다.</p><p><br>[강좌 내용/교육 과정]<br>&nbsp;- 시. 서. 화가 있는 수묵 담채화 그리기<br>&nbsp;- 체본을 그려주고 그림본을 보고 그리기</p><p>&nbsp;- 3개월 과정 / 개별 수업</p><p><br>[준비물품]<br>&nbsp;- 준비물 : 화선지 붓 물감 먹물 등<br>&nbsp;- 구입처 : 모든 필방(인사동)<br>&nbsp;- 수강료 : 월 5만원<br>&nbsp;- 재료비 : 없음. 각자 개인준비</p>","37.579029","126.986408","Y"
"26","화","야간","안방","L002","KOR","문인화","월 5만원 (재료비 별도)","대중교통 이용시 지하철 3호선 안국역 2번출구 앞 [종로 02] 버스 승차 북촌한옥마을/돈미약국에서 하차 도보 약 2분","<p>문인화(사군자)<br>박미진 PARK Mijin</p><p><br>[주요 이력]<br>&nbsp;- 원광대학교 사범대학 미술교육과 졸업<br>&nbsp;- 여주 점동중학교 양평 강하중학교 의정부서중학교 양주 덕정중학교 교사 역임<br>&nbsp;- 심사위원 : 대한민국 미술대전 경기도 미술대전 대전광역시 미술대전 행주서예대전<br>&nbsp;- 초대작가 : 대한미국 미술대전 전라북도 미술대전 충청남도 미술대전<br>&nbsp;&nbsp;&nbsp;&nbsp;&nbsp;&nbsp;&nbsp;&nbsp;&nbsp;&nbsp;&nbsp;&nbsp;&nbsp;&nbsp;&nbsp;&nbsp;&nbsp; 대한민국 문인화대전 강함휘호대회 전국휘호대회(국서련)<br>&nbsp;- 한국미술협회 회원 마포미협 문인화 분과위원장 화묵회 회원<br>&nbsp;- 개인전(2015 가나인사아트센터)과 단체전 다수</p><p><br>[강좌 목표]<br>&nbsp;- 매난국죽의 사군자를 포함 서예적인 필법을 이용해서 누구나 그릴 수 있는 수묵 담채화를 그린다.</p><p><br>[강좌 내용/교육 과정]<br>&nbsp;- 시. 서. 화가 있는 수묵 담채화 그리기<br>&nbsp;- 체본을 그려주고 그림본을 보고 그리기</p><p>&nbsp;- 3개월 과정 / 개별 수업</p><p><br>[준비물품]<br>&nbsp;- 준비물 : 화선지 붓 물감 먹물 등<br>&nbsp;- 구입처 : 모든 필방(인사동)<br>&nbsp;- 수강료 : 월 5만원<br>&nbsp;- 재료비 : 없음. 각자 개인준비</p>","37.579029","126.986408","Y"
"33","수","오전","대청마루","L004","KOR","꽃차","월 5만원 (재료비 별도)","대중교통 이용시 지하철 3호선 안국역 2번출구 앞 [종로 02] 버스 승차 북촌한옥마을/돈미약국에서 하차 도보 약 2분","<p>꽃차 만들기</p><p>&nbsp;</p><p>이상분</p><p>&nbsp;</p><p>[주요 이력]</p><p>- 현) 부니네 다정 대표</p><p>- 전) 서초여성 가족프라자 강사</p><p>- 전) 서대문 예술마을 만들기 사업 꽃차강의</p><p>&nbsp;</p><p>[강좌 목표]</p><p>- 봄 여름 가을 겨울 각 계절별 소재를 활용하여 꽃차를 만든다.</p><p>&nbsp;</p><p>[강좌 과정]</p><p>- 사계절 별 그 계절에 생산되는 꽃 가지 열매 뿌리 등을 소재로 1년 단위로 수업 진행</p><p>- 꽃차에 대한 기초에서 응용 및 전문적 지식 습득이 가능한 과정</p><p>- 수강 신청은 매월 수시 모집 가능</p><p>&nbsp;</p><p>[준비 물품]</p><p>- 재료비 1회 10000원</p>","37.579029","126.986408","Y"
"61","금","오전","안방","L001","KOR","실용민화","월 5만원 (재료비 별도)","대중교통 이용시 지하철 3호선 안국역 2번출구 앞 [종로 02] 버스 승차 북촌한옥마을/돈미약국에서 하차 도보 약 2분","<p>실용민화<br>진리바</p><p><br>[주요이력]<br>&nbsp;- 경기대학교 동대학원 한국화과 졸업<br>&nbsp;- 성균관대학교 일반대학원 유학과 박사 졸업(동양미학 전공)<br>&nbsp;- 개인전 4회 및 초대전 6회 (인사아트센터 덕원갤러리 라메르갤러리 가고시포갤러리 한가람미술과<br>&nbsp;&nbsp; 수아아트스페이스 안양롯데화랑 허브갤러리 NC갤러리)<br>&nbsp;- 그 외 단체전 다수(회원전 포함)<br>&nbsp;- 경기대학교 단국대학교 한국화과 강사 역임</p><p><br>[강좌 목표]<br>&nbsp;- 민화는 우리 전통회화의 한 부분으로 일반인이 전통화를 시작할 때 초급에서부터 전문가 과정으로까지<br>&nbsp;&nbsp; 쉽게 연계가 가능한 분야이다. 추후 비단에 그리는 과정과 전통인물화 공필화까지 심화수업을 통해<br>&nbsp;&nbsp; 전문화 할 수 있다. 또한 실생활에 이용할 수 있는 생활용품들에 민화를 그려 넣어<br>&nbsp;&nbsp; 인테리어 소품으로도 활용 가능한 작품들을 만들 수 있으며<br>&nbsp;&nbsp; 그 외 수업 내 완성한 작품들과 함께 전시를 통해 많은 사람들과 공유하고자 한다.</p><p><br>[강좌 내용/교육 과정]<br>&nbsp;◎ 과정설명 및 재료소개<br>&nbsp;- 밑그림 그리기 &gt; 한지 물들이기&gt; 바탕색 칠하기 &gt; 바림하기&gt; 마감선 긋기<br>&nbsp; ◎ 작업순서<br>&nbsp;- 모란도 연화도 호접도 초충도 작호도 등을 순서로 하며 그 외 자유선택</p><p><br>[준비물]<br>&nbsp;- 먹물 한지(민화용) 아교 선붓 바림붓 채색붓(2개 이상) 호분<br>&nbsp;&nbsp;&nbsp; 민화용물감(튜브 또는 분채 선택) 평붓 소접시<br>&nbsp;- 대략 13~15만원 정도로 첫 준비물 이후론 추가 종이만 구매하면 된다.</p>","37.579029","126.986408","Y"
"23","화","오후","대청마루","L002","KOR","문인화","월 5만원 (재료비 별도)","대중교통 이용시 지하철 3호선 안국역 2번출구 앞 [종로 02] 버스 승차 북촌한옥마을/돈미약국에서 하차 도보 약 2분","<p>문인화(사군자)<br>박미진 PARK Mijin</p><p><br>[주요 이력]<br>&nbsp;- 원광대학교 사범대학 미술교육과 졸업<br>&nbsp;- 여주 점동중학교 양평 강하중학교 의정부서중학교 양주 덕정중학교 교사 역임<br>&nbsp;- 심사위원 : 대한민국 미술대전 경기도 미술대전 대전광역시 미술대전 행주서예대전<br>&nbsp;- 초대작가 : 대한미국 미술대전 전라북도 미술대전 충청남도 미술대전<br>&nbsp;&nbsp;&nbsp;&nbsp;&nbsp;&nbsp;&nbsp;&nbsp;&nbsp;&nbsp;&nbsp;&nbsp;&nbsp;&nbsp;&nbsp;&nbsp;&nbsp; 대한민국 문인화대전 강함휘호대회 전국휘호대회(국서련)<br>&nbsp;- 한국미술협회 회원 마포미협 문인화 분과위원장 화묵회 회원<br>&nbsp;- 개인전(2015 가나인사아트센터)과 단체전 다수</p><p><br>[강좌 목표]<br>&nbsp;- 매난국죽의 사군자를 포함 서예적인 필법을 이용해서 누구나 그릴 수 있는 수묵 담채화를 그린다.</p><p><br>[강좌 내용/교육 과정]<br>&nbsp;- 시. 서. 화가 있는 수묵 담채화 그리기<br>&nbsp;- 체본을 그려주고 그림본을 보고 그리기</p><p>&nbsp;- 3개월 과정 / 개별 수업</p><p><br>[준비물품]<br>&nbsp;- 준비물 : 화선지 붓 물감 먹물 등<br>&nbsp;- 구입처 : 모든 필방(인사동)<br>&nbsp;- 수강료 : 월 5만원<br>&nbsp;- 재료비 : 없음. 각자 개인준비</p>","37.579029","126.986408","Y"
"57","목","야간","사랑방","L003","KOR","손뜨개","월 5만원 (재료비 별도)","대중교통 이용시 지하철 3호선 안국역 2번출구 앞 [종로 02] 버스 승차 북촌한옥마을/돈미약국에서 하차 도보 약 2분","<p>손뜨개&nbsp;</p><p>김금화</p><p>&nbsp;</p><p>[주요 이력]</p><p>-&nbsp;현) 경희대학교 의류디자인학과 겸임교수</p><p>- 업사이클링 스토리 대표</p><p>- 한국니트디자인 학회 이사</p><p>-개인전 6회 단체전 30회 이상</p><p>&nbsp;</p><p>[강좌 목표]</p><p>- 니트 조직의 이론에서 실기 니트 디자인의 기초에서 응용 니트 실의 기초에서 응용에 이르기까지 단기간에 습득 가능한 예비 니트 전문가 코스입니다.</p><p>&nbsp;</p><p>[강좌 과정]</p><p>- 니트에 대한 기본이론에서 실기까지 통합된 과정이다.&nbsp;</p><p>상세 내용으로는 니트 디자인의 기초와 응용 털실활용에 있어서의 기초에서 응용에 대해 자세히 배우는 과정이다.</p><p>제작 아이템으로는 스카프와 모자를 중심으로 제작하면서 니트 기술을 습득할 예정이다.</p><p>&nbsp;</p><p>[준비 물품]</p><p>- 실 바늘(대바늘 코바늘)</p><p>- 재료비 3만원</p><p>&nbsp;</p>","37.579029","126.986408","Y"
"64","금","오전","별당","L002","KOR","서예","월 5만원 (재료비 별도)","대중교통 이용시 지하철 3호선 안국역 2번출구 앞 [종로 02] 버스 승차 북촌한옥마을/돈미약국에서 하차 도보 약 2분","<p>서예<br>이정선</p><p><br>[주요이력]<br>- 1987년 제 8회 전국서예대전 동상<br>- 1989년 제 3회 동남아미술대전 입선<br>- 1990년 동양서도작가협회 특선<br>- 1991년 동양서도작가협회 우수상<br>- 1991~93년 제 13~16회 한국미술문화대상전 입선 특선<br>- 2009년 제 41회 신사임당 날 기념 예능대회 입선<br>- 1992-1998 서예학원 운영<br>- 2010-2014 대림대학교 강사<br>- 2013-2018 서울시 평생학습 대림정보문화도서관 삼성노블카운티<br>&nbsp; 불광NC문화센터 강사 김포향교 명륜대학 강사<br>- 2019 김포향교 명륜대학 강사 북촌문화센터 강사</p><p><br>[강좌목표]<br>- 옛 선조들의 전통문화를 체험해 보고자 합니다. 북촌이라는 공간 속에서 라면<br>&nbsp; 바쁜 삶속에 지친 현대인의 감성을 치유하여 몸과 마음에 힐링이 되리라 생각합니다.</p><p><br>[강좌 내용/교육 과정]<br>- 회원분들과 손글씨의 즐거움을 경험해 보고자 합니다.<br>- 수업진행은 임서 위주로 진행합니다. 궁체 정자 흘림 판본체 옥원듕회연 낙성비룡 구운몽<br>&nbsp; 서간문 음식디미방체 등등 다양한 글씨체를 익히도록 연습합니다.<br>- 평소 본인이 좋아하는 글귀나 시로 자신의 작품을 만들고 그 작품을 선물 할 수 있었으면 합니다.<br>&nbsp; 학기를 마치며 차회를 열고 작품전시를 통해 지인들을 초대하여<br>&nbsp; 북촌에서의 특별한 시간을 함께 즐길 수 있었으면 합니다.</p><p><br>[준비물]<br>- 화선지 붓 먹물</p>","37.579031","126.986405","Y"
"55","목","오후","마을서재 사랑방","L001","KOR","소리와 함께하는 장구","월 5만원 (재료비 별도)","대중교통 이용시 지하철 3호선 안국역 2번출구 앞 [종로 02] 버스 승차 북촌한옥마을/돈미약국에서 하차 도보 약 2분","<p>장구&nbsp;</p><p>신형식</p><p>&nbsp;</p><p>[주요 이력]</p><p>- 한국예술종합학교 전통예술원 졸업</p><p>- 구미 박록주 제 10회 전국국악대전 종합대상(대통령상) 수상</p><p>- 현) 종합예술가모임 파르베 대표</p><p>&nbsp;</p><p>[강좌 목표]</p><p>- 장구의 기본 장단을 익히고 장단에 맞추어 누구나 쉽게 부를 수 있는 전통성악곡을 배우고 익힙니다.&nbsp;</p>","37.579029","126.986408","Y"
"59","목","야간","별당","L002","KOR","서예","월 5만원 (재료비 별도)","대중교통 이용시 지하철 3호선 안국역 2번출구 앞 [종로 02] 버스 승차 북촌한옥마을/돈미약국에서 하차 도보 약 2분","<p>서예<br>이정선</p><p><br>[주요이력]<br>- 1987년 제 8회 전국서예대전 동상<br>- 1989년 제 3회 동남아미술대전 입선<br>- 1990년 동양서도작가협회 특선<br>- 1991년 동양서도작가협회 우수상<br>- 1991~93년 제 13~16회 한국미술문화대상전 입선 특선<br>- 2009년 제 41회 신사임당 날 기념 예능대회 입선<br>- 1992-1998 서예학원 운영<br>- 2010-2014 대림대학교 강사<br>- 2013-2018 서울시 평생학습 대림정보문화도서관 삼성노블카운티<br>&nbsp; 불광NC문화센터 강사 김포향교 명륜대학 강사<br>- 2019 김포향교 명륜대학 강사 북촌문화센터 강사</p><p><br>[강좌목표]<br>- 옛 선조들의 전통문화를 체험해 보고자 합니다. 북촌이라는 공간 속에서 라면<br>&nbsp; 바쁜 삶속에 지친 현대인의 감성을 치유하여 몸과 마음에 힐링이 되리라 생각합니다.</p><p><br>[강좌 내용/교육 과정]<br>- 회원분들과 손글씨의 즐거움을 경험해 보고자 합니다.<br>- 수업진행은 임서 위주로 진행합니다. 궁체 정자 흘림 판본체 옥원듕회연 낙성비룡 구운몽<br>&nbsp; 서간문 음식디미방체 등등 다양한 글씨체를 익히도록 연습합니다.<br>- 평소 본인이 좋아하는 글귀나 시로 자신의 작품을 만들고 그 작품을 선물 할 수 있었으면 합니다.<br>&nbsp; 학기를 마치며 차회를 열고 작품전시를 통해 지인들을 초대하여<br>&nbsp; 북촌에서의 특별한 시간을 함께 즐길 수 있었으면 합니다.</p><p><br>[준비물]<br>- 화선지 붓 먹물</p>","37.579031","126.986405","Y"
"27","화","야간","사랑방","L002","KOR","펜드로잉","월 5만원 (재료비 별도)","대중교통 이용시 지하철 3호선 안국역 2번출구 앞 [종로 02] 버스 승차 북촌한옥마을/돈미약국에서 하차 도보 약 2분","<div>펜드로잉&nbsp;</div><div>황미혜</div><div><br></div><div>[주요 이력]</div><div>- 현) 창문여고 미술거점학교 드로잉강사 외 다수 실기강사</div><div>- 현) 성동 공유 센터 펜드로잉 강사</div><div>- 성신여자대학교 서양화 졸업 미술교육 석사</div><div><br></div><div>[강좌 목표]</div><div>- 펜드로잉과 채색화의 기본이론을 배우고 적용하면서 북촌길과 전통가옥의 아름다움을 누구나 개성있는 그림으로 쉽게 표현할 수 있습니다.&nbsp;</div>","37.579029","126.986408","Y"
"7","월","오후","사랑방","L002","KOR","펜드로잉","월 5만원 (재료비 별도)","대중교통 이용시 지하철 3호선 안국역 2번출구 앞 [종로 02] 버스 승차 북촌한옥마을/돈미약국에서 하차 도보 약 2분","<div>펜드로잉&nbsp;</div><div>황미혜</div><div><br></div><div>[주요 이력]</div><div>- 현) 창문여고 미술거점학교 드로잉강사 외 다수 실기강사</div><div>- 현) 성동 공유 센터 펜드로잉 강사</div><div>- 성신여자대학교 서양화 졸업 미술교육 석사</div><div><br></div><div>[강좌 목표]</div><div>- 펜드로잉과 채색화의 기본이론을 배우고 적용하면서 북촌길과 전통가옥의 아름다움을 누구나 개성있는 그림으로 쉽게 표현할 수 있습니다.&nbsp;</div>","37.579029","126.986408","Y"